{
  "version": "15.0.7",
  "vulnerabilities": [
    {
      "id": ":SKIP:",
      "category": "sast",
      "name": "Key exchange without entity authentication",
      "description": "The application was found to ignore host keys. Host keys are important as\nthey provide assurance that the client can prove that the host is trusted.\nBy ignoring these host keys, it is impossible for the client to validate the\nconnection is to a trusted host.\n\nFor the `ssh.ClientConfig` `HostKeyCallback` property, consider using the\n[knownhosts](https://pkg.go.dev/golang.org/x/crypto/ssh/knownhosts) package that\nparses OpenSSH's `known_hosts` key database.\n\nExample configuration connecting to a known, trusted host:\n```\nknownHostCallback, err := knownhosts.New(\"/home/user/.ssh/known_hosts\")\nif err != nil {\n  log.Fatal(err)\n}\n\n// Create client config using the knownHost callback function\nconfig := &ssh.ClientConfig{\n  ...\n  HostKeyCallback: knownHostCallback,\n}\n\n// Connect to ssh server\nconn, err := ssh.Dial(\"tcp\", \"localhost:22\", config)\nif err != nil {\n  log.Fatal(\"unable to connect: \", err)\n}\ndefer conn.Close()\n```\n",
      "cve": "semgrep_id:gosec.G106-1:8:8",
      "severity": "Medium",
      "scanner": {
        "id": "semgrep",
        "name": "Semgrep"
      },
      "location": {
        "file": "foo.go",
        "start_line": 8
      },
      "identifiers": [
        {
          "type": "semgrep_id",
          "name": "gosec.G106-1",
          "value": "gosec.G106-1"
        },
        {
          "type": "cwe",
          "name": "CWE-322",
          "value": "322",
          "url": "https://cwe.mitre.org/data/definitions/322.html"
        },
        {
          "type": "gosec_rule_id",
          "name": "Gosec Rule ID G106",
          "value": "G106"
        }
      ],
      "tracking": {
        "type": "source",
        "items": [
          {
            "file": "foo.go",
            "line_start": 8,
            "line_end": 8,
            "signatures": [
              {
                "algorithm": "scope_offset",
                "value": "foo.go|foo[0]:1"
              }
            ]
          }
        ]
      }
    }
  ],
  "dependency_files": [],
  "scan": {
    "analyzer": {
      "id": "semgrep",
      "name": "Semgrep",
      "url": "https://gitlab.com/gitlab-org/security-products/analyzers/semgrep",
      "vendor": {
        "name": "GitLab"
      },
      "version": ":SKIP:"
    },
    "scanner": {
      "id": "semgrep",
      "name": "Semgrep",
      "url": "https://github.com/returntocorp/semgrep",
      "vendor": {
        "name": "GitLab"
      },
      "version": ":SKIP:"
    },
    "type": "sast",
    "start_time": ":SKIP:",
    "end_time": ":SKIP:",
    "status": "success"
  }
}
